How to Be an Rtist: A Beginner’s Guide to Beautiful, Intentional R Projects - 3 Opening Data
…
3  Opening Data

We can open our containers or “nests” in data using the function unnest from the package tidyr.

library(tidyr)
df <- unnest(df, data)
df

# A tibble: 24 × 9
   source    country     date  file_type continent year  lifeExp pop   gdpPercap
   <chr>     <chr>       <chr> <chr>     <chr>     <chr> <chr>   <chr> <chr>    
 1 gapminder afghanistan 2022… csv       Asia      1952  28.801  8425… 779.4453…
 2 gapminder afghanistan 2022… csv       Asia      1957  30.332  9240… 820.8530…
 3 gapminder afghanistan 2022… csv       Asia      1962  31.997  1026… 853.10071
 4 gapminder afghanistan 2022… csv       Asia      1967  34.02   1153… 836.1971…
 5 gapminder afghanistan 2022… csv       Asia      1972  36.088  1307… 739.9811…
 6 gapminder afghanistan 2022… csv       Asia      1977  38.438  1488… 786.11336
 7 gapminder afghanistan 2022… csv       Asia      1982  39.854  1288… 978.0114…
 8 gapminder afghanistan 2022… csv       Asia      1987  40.822  1386… 852.3959…
 9 gapminder afghanistan 2022… csv       Asia      1992  41.674  1631… 649.3413…
10 gapminder afghanistan 2022… csv       Asia      1997  41.763  2222… 635.3413…
# ℹ 14 more rows
…
These unique values are perfect. Which means every value is perfect, as these unique values represent them. But what if they were not capitalized, for example? That is in fact the case with our country column: the values are not capitalized because the values came from our file-naming, and it is good practice not to capitalize when file-naming. To capitalize the values in a column, you can use a function called str_to_title.

str_to_title(df$country)

 [1] "Afghanistan" "Afghanistan" "Afghanistan" "Afghanistan" "Afghanistan"
 [6] "Afghanistan" "Afghanistan" "Afghanistan" "Afghanistan" "Afghanistan"
[11] "Afghanistan" "Afghanistan" "Canada"      "Canada"      "Canada"     
[16] "Canada"      "Canada"      "Canada"      "Canada"      "Canada"     
[21] "Canada"      "Canada"      "Canada"      "Canada"     

df

# A tibble: 24 × 9
   source    country     date  file_type continent year  lifeExp pop   gdpPercap
   <chr>     <chr>       <chr> <chr>     <chr>     <chr> <chr>   <chr> <chr>    
 1 gapminder afghanistan 2022… csv       Asia      1952  28.801  8425… 779.4453…
 2 gapminder afghanistan 2022… csv       Asia      1957  30.332  9240… 820.8530…
 3 gapminder afghanistan 2022… csv       Asia      1962  31.997  1026… 853.10071
 4 gapminder afghanistan 2022… csv       Asia      1967  34.02   1153… 836.1971…
 5 gapminder afghanistan 2022… csv       Asia      1972  36.088  1307… 739.9811…
 6 gapminder afghanistan 2022… csv       Asia      1977  38.438  1488… 786.11336
 7 gapminder afghanistan 2022… csv       Asia      1982  39.854  1288… 978.0114…
 8 gapminder afghanistan 2022… csv       Asia      1987  40.822  1386… 852.3959…
 9 gapminder afghanistan 2022… csv       Asia      1992  41.674  1631… 649.3413…
10 gapminder afghanistan 2022… csv       Asia      1997  41.763  2222… 635.3413…
# ℹ 14 more rows
…
