How to Be an Rtist: A Beginner’s Guide to Beautiful, Intentional R Projects - 5 Understanding Tidyverse Functions
…
df_mutated <- df_unnested |> mutate(year = year |> as.numeric())

Grouping with group

You may have also noticed group_by() in the filter() documentation.

group_by() groups the data for the function(s) that follow group_by(). It’s easiest to understand with an example:

df_mutated |> 
  group_by(country) |> 
  mutate(max_year = max(year)) |> 
  select(country, year, max_year)

# A tibble: 24 × 3
# Groups:   country [2]
   country      year max_year
   <chr>       <dbl>    <dbl>
 1 afghanistan  1952     2007
 2 afghanistan  1957     2007
 3 afghanistan  1962     2007
 4 afghanistan  1967     2007
 5 afghanistan  1972     2007
 6 afghanistan  1977     2007
 7 afghanistan  1982     2007
 8 afghanistan  1987     2007
 9 afghanistan  1992     2007
10 afghanistan  1997     2007
# ℹ 14 more rows
…
